%YAML 1.1
%TAG !u! tag:unity3d.com,2011:
--- !u!1045 &1
EditorBuildSettings:
  m_ObjectHideFlags: 0
  serializedVersion: 2
  m_Scenes:
  - enabled: 1
    path: Assets/Scenes/MainMenuScene.unity
    guid: 2cda990e2423bbf4892e6590ba056729
  - enabled: 1
    path: Assets/Scenes/MainGameScene.unity
    guid: 9ffcc3319a9aeed488485013b4d208e2
  - enabled: 1
    path: Assets/Scenes/CreditsScene.unity
    guid: 9eaf36ee10fb42b4db2588581307d366
  m_configObjects: {}
